module bootcamp

go 1.17

require (
	github.com/davecgh/go-spew v1.1.1 // indirect
	github.com/golang/mock v1.6.0 // indirect
	github.com/gorilla/mux v1.8.0 // indirect
	github.com/hashicorp/go-version v1.3.0 // indirect
	github.com/hashicorp/logutils v0.0.0-20150609070431-0dc08b1671f3 // indirect
	github.com/inconshreveable/mousetrap v1.0.0 // indirect
	github.com/pact-foundation/pact-go v1.6.9 // indirect
	github.com/pact-foundation/pact-provider-verifier v1.36.1 // indirect
	github.com/pmezard/go-difflib v1.0.0 // indirect
	github.com/rs/cors v1.8.2 // indirect
	github.com/spf13/cobra v0.0.0-20160604044732-f447048345b6 // indirect
	github.com/spf13/pflag v0.0.0-20160427162146-cb88ea77998c // indirect
	github.com/stretchr/testify v1.7.0 // indirect
	golang.org/x/mod v0.4.2 // indirect
	golang.org/x/sys v0.0.0-20210510120138-977fb7262007 // indirect
	golang.org/x/tools v0.1.1 // indirect
	golang.org/x/xerrors v0.0.0-20200804184101-5ec99f83aff1 // indirect
	gopkg.in/yaml.v3 v3.0.0-20200313102051-9f266ea9e77c // indirect
)
